Introduction to Data Manipulation
…
0.4 select()

The first verb (function) we will utilize is select(). We can employ it to manipulate our data based on columns. If you recall from our initial exploration of the data set there were eight variables attached to every observation. Do you recall them? If you do not, there is no problem. You can utilize names() to retrieve the names of the variables in a data frame.

names(penguins)

Say we are only interested in the species, island, and year variables of these data, we can utilize the following syntax:

select(data, columns)

Activity The following code chunk would select the variables we need. Can you adapt it, so that we keep the body_mass_g and sex variables as well?

dplyr::select(penguins, species, island, year)

# A tibble: 344 x 3
   species island     year
   <fct>   <fct>     <int>
 1 Adelie  Torgersen  2007
 2 Adelie  Torgersen  2007
 3 Adelie  Torgersen  2007
 4 Adelie  Torgersen  2007
 5 Adelie  Torgersen  2007
 6 Adelie  Torgersen  2007
 7 Adelie  Torgersen  2007
 8 Adelie  Torgersen  2007
 9 Adelie  Torgersen  2007
10 Adelie  Torgersen  2007
# … with 334 more rows
…
==: Equal to

!=: Not equal to

>, >=: Greater than, greater than or equal to

<, <=: Less than, less than or equal to

&, |: And, or

Say we are interested in retrieving the observations from the year 2007. We would do:

dplyr::filter(penguins, year == 2007)

# A tibble: 110 x 8
   species island bill_length_mm bill_depth_mm flipper_length_… body_mass_g sex  
   <fct>   <fct>           <dbl>         <dbl>            <int>       <int> <fct>
 1 Adelie  Torge…           39.1          18.7              181        3750 male 
 2 Adelie  Torge…           39.5          17.4              186        3800 fema…
 3 Adelie  Torge…           40.3          18                195        3250 fema…
 4 Adelie  Torge…           NA            NA                 NA          NA <NA> 
 5 Adelie  Torge…           36.7          19.3              193        3450 fema…
 6 Adelie  Torge…           39.3          20.6              190        3650 male 
 7 Adelie  Torge…           38.9          17.8              181        3625 fema…
 8 Adelie  Torge…           39.2          19.6              195        4675 male 
 9 Adelie  Torge…           34.1          18.1              193        3475 <NA> 
10 Adelie  Torge…           42            20.2              190        4250 <NA> 
# … with 100 more rows, and 1 more variable: year <int>
…
Activity Can you get the weight of the lightest penguin of each species? You can use min(). What happens when in addition to species you also group by year group_by(species, year)?

0.9 arrange()

The arrange() verb is pretty self-explanatory. arrange() orders the rows of a data frame by the values of selected columns in ascending order. You can use the desc() argument inside to arrange in descending order. The following chunk arranges the data frame based on the length of the penguins' bill. You hint tab contains the code for the descending order alternative.

arrange(variable_of_interest)

penguins %>%
  dplyr::arrange(bill_length_mm)

# A tibble: 344 x 8
   species island bill_length_mm bill_depth_mm flipper_length_… body_mass_g sex  
   <fct>   <fct>           <dbl>         <dbl>            <int>       <int> <fct>
 1 Adelie  Dream            32.1          15.5              188        3050 fema…
 2 Adelie  Dream            33.1          16.1              178        2900 fema…
 3 Adelie  Torge…           33.5          19                190        3600 fema…
 4 Adelie  Dream            34            17.1              185        3400 fema…
 5 Adelie  Torge…           34.1          18.1              193        3475 <NA> 
 6 Adelie  Torge…           34.4          18.4              184        3325 fema…
 7 Adelie  Biscoe           34.5          18.1              187        2900 fema…
 8 Adelie  Torge…           34.6          21.1              198        4400 male 
 9 Adelie  Torge…           34.6          17.2              189        3200 fema…
10 Adelie  Biscoe           35            17.9              190        3450 fema…
# … with 334 more rows, and 1 more variable: year <int>
…
